County,Sub-County,Region,Name,Street,Suite #,City,State,Zip Code,Phone Number,E-mail,Websites
LOS ANGELES,West LA,LAX/Inglewood,Green Cross,5589 Manchester Ave,---,Los Angeles,CA,90045,(310) 670-7372,greencross-herb@yahoo.com,---
LOS ANGELES,West LA,LAX/Inglewood,LAX Meds (Delivery Only),---,---,Los Angeles,CA,90045,(310) 933-5562,laxdelivery@gmail.com,http://laxmeds.com
LOS ANGELES,West LA,LAX/Inglewood,L.A. Medical Delivery,---,---,Los Angeles,CA,90045,(310) 491-6932,info@lamedicaldelivery.com,http://www.lamedicaldelivery.com
LOS ANGELES,West LA,LAX/Inglewood,SoCalCC.com (Delivery Only),---,---,Marina Del Rey,CA,90292,(310) 210-1832,delivery@socalcc.com,http://www.socalcc.com
LOS ANGELES,West LA,LAX/Inglewood,LAX Compassionate Caregivers,5710 W. Machester Blvd ,203,Los Angeles,CA,90045,(310) 568-9602,lax_cc@yahoo.com,---
LOS ANGELES,West LA,LAX/Inglewood,B.E.A.C.H. (Beach Enlightenment & Compassionate Healing Center,310 Culver Blvd,---,Playa Del Rey,CA,90293,(310) 821-4420,---,---
LOS ANGELES,West LA,LAX/Inglewood,All American Healing Group,126 1/2 S. Market St.,---,Inglewood,CA,90301,(310) 412-0557,allamericanhealing@gmail.com,---
LOS ANGELES,West LA,LAX/Inglewood,Exclusive Caregivers,2157 W. Century Blvd,---,Los Angeles,CA,90047,(323) 754-2209,info@exclusivecaregivers.org,---
LOS ANGELES,West LA,LAX/Inglewood,Mind & Body Healing Center,5941 Avalon Blvd.,---,Los Angeles,CA,90037,(323) 238-7488,---,---
LOS ANGELES,West LA,LAX/Inglewood,Inglewood MCC Wellness Center,318 South Market St,---,Los Angeles,CA,,(310) 674-4444,---,---
LOS ANGELES,West LA,LAX/Inglewood,Green Medical Caregivers,4817 South Normandie Ave,---,Los Angeles,CA,90037,(323) 292-4568,---,---
LOS ANGELES,Van Nuys & SFV,San Fernando/ Santa Clarita,MEDCANN,13661 Hubbard St,---,Sylmar,CA,91342,(747) 224-0766,medcanncollective@gmail.com,---
LOS ANGELES,Van Nuys & SFV,San Fernando/ Santa Clarita,CalSea Collective,13509 Hubbard St,---,Sylmar,CA,91342,(818) 363-6050,calseacollective@gmail.com,---
LOS ANGELES,Van Nuys & SFV,San Fernando/ Santa Clarita,Greenlight Discount Pharmacy,15507 Cobalt St,4,Sylmar,CA,91342,(818) 256-1964,greenlightdiscountpharmacy@hotmail.com,http://www.gtodblog.com
LOS ANGELES,Van Nuys & SFV,San Fernando/ Santa Clarita,911 Caregivers,9911 Sepulveda Blvd,---,Mission Hills,CA,91345,(818) 892-9337,911caregivers@gmail.com,---
LOS ANGELES,Van Nuys & SFV,San Fernando/ Santa Clarita,Epics Delivery Service,---,---,Sylmar,CA,91342,(661) 347-6564,epicdeliveryservice@gmail.com,---
LOS ANGELES,Van Nuys & SFV,San Fernando/ Santa Clarita,Progressive Options,9901 San Fernando Rd,41,Pacoima,CA,91331,(818) 899-4540,progressiveoptions@gmail.com,---
LOS ANGELES,Van Nuys & SFV,San Fernando/ Santa Clarita,Infinity Healing Center,10568 Kewen Ave,---,Pacoima,CA,91331,(818) 897-1112,infinity.healing.ctr@gmail.com,http://www.cannamedbox.com
LOS ANGELES,Van Nuys & SFV,San Fernando/ Santa Clarita,Sylmar Caregivers,12737 Glenoaks Blvd,15,Sylmar,CA,91342,(818) 403-6164,sylmarmedical@yahoo.com,
LOS ANGELES,Other LA,Antelope Valley ,Chronically Inclined,16804 Hwy 58,---,Mojave,CA,93501,(661) 824-0420,chronicallyinclined@live.com,---
LOS ANGELES,Other LA,Antelope Valley ,The Green Medics (Delivery Only),---,---,Lancaster,CA,93534,(661) 233-4890,thegreenmedics@gmail.com,http://thegreenmedics.com
LOS ANGELES,Other LA,Antelope Valley ,Organic Health Solutions,1315 W. Rosamond Blvd,1A,Rosamond,CA,93560,(661) 256-0220,organichealthsolutions@ymail.com,---
LOS ANGELES,Other LA,Antelope Valley ,Antelope Vallet Diamond Collective,2739 Diamond St,E,Rosamond,CA,93560,(661) 256-7753,---,---
LOS ANGELES,Other LA,Antelope Valley ,661 Medical Collective,2689 Sierra Highway,---,Rosamond,CA,93560,(661) 256-6500,six61medical@yahoo.com,---
LOS ANGELES,Other LA,Antelope Valley ,Evergreen Health Alliance (Delivery?),---,---,Quartz Hill,CA,93536,(661) 722-4400,info@evergreenha.com,http://www.evergreenha.com
LOS ANGELES,Other LA,Antelope Valley ,Green Zone Collective (Delivery Only),---,---,Lancaster,CA,93534,(661) 390-8437,greenzonecollective@yahoo.com,
LOS ANGELES,Other LA,Antelope Valley ,Green Mammoth,94 Laurel Mountain Rd,420,Mammoth Lakes,CA,93546,(760) 934-5400,greenmammoth@yahoo.com,---