County,Sub-County,Region,Name,Street,Suite #,City,State,Zip Code,Phone Number,E-mail,Websites
SAN DIEGO,None,Central San Diego,Cannabis Creations Wellness Cooperative,2859 El Cajon Blvd,1D,San Diego,CA,92104,(858) 356-7967,cannabiscreations@gmail.com,http://www.ccwcsd.com
San Diego,None,Central San Diego,Higher Level,4443 30th St,105,San Diego,CA,92116,(888) 987-6337,admin@higherlevelcoop.com,http://www.higherlevelcoop.com
San Diego,None,Central San Diego,Hot Box,3466 El Cajon Blvd,---,San Diego,CA,92104,(619) 288-1777,hotboxsd@gmail.com,---
San Diego,None,Central San Diego,2144 Medical Center,2144 El Cajon Blvd,---,San Diego,CA,92104,(619) 299-9862,elcajonmedicalcenter@gmail.com,---
San Diego,None,Central San Diego,The Fire Station,1816 Howard Ave,---,San Diego,CA,92103,(619) 255-8264,firestation@gmail.com,---
San Diego,None,Central San Diego,Unified Collective,2815 Camino Del Rio,2A,San Diego,CA,92108,(619) 299-6600,sdunifiedcollective@gmail.com,http://www.unifiedcollective.com
San Diego,None,Central San Diego,Oasis Herbal Center,3441 University Ave,---,San Diego,CA,92104,(619) 280-0015,sdohc@yahoo.com,---
San Diego,None,Central San Diego,Therapeutic Healing Cooperative,3251 Holiday Court,201,La Jolla,CA,92037,(866) 378-1726,info@medthcsandiego.com,http://www.medthcsandiego.com
San Diego,None,Central San Diego,San Diego Discount Caregivers,3152 University Ave,---,San Diego,CA,92104,(619) 280-7332,sddccorp@yahoo.com,http://sandiegodiscountcaregivers.com
San Diego,None,Central San Diego,The Greenery Caregivers,4672 Park Blvd,---,San Diego,CA,92116,(619) 296-1300,thegreenerycaregivers@gmail.com,---
,,,,,,,,,,,
,,,,,,,,,,,
,,,,,,,,,,,
,,,,,,,,,,,
,,,,,,,,,,,
,,,,,,,,,,,
,,,,,,,,,,,
,,,,,,,,,,,
,,,,,,,,,,,
,,,,,,,,,,,
,,,,,,,,,,,
,,,,,,,,,,,
,,,,,,,,,,,
,,,,,,,,,,,
,,,,,,,,,,,
,,,,,,,,,,,
,,,,,,,,,,,
,,,,,,,,,,,
,,,,,,,,,,,
,,,,,,,,,,,
,,,,,,,,,,,
,,,,,,,,,,,
,,,,,,,,,,,
,,,,,,,,,,,
,,,,,,,,,,,
,,,,,,,,,,,
,,,,,,,,,,,
,,,,,,,,,,,
,,,,,,,,,,,
,,,,,,,,,,,