State,County,Region,Name,Street,Suite #,City,State,Zip Code,Phone Number,E-mail,Websites
Colorado,PITKIN,Aspen,Alternative Medical Solutions,106 S. Mill St,203,Aspen,CO,81611,(970) 544-8142,ben@altmedicalsolutions.com,http://www.altmedicalsolutions.com
Colorado,PITKIN,Aspen,Boom Town Crested Butte Althernative Medicine,310 Belleview,2,Crested Butte,CO,81224,(970) 251-5023,cbalternative@gmail.com,---
Colorado,PITKIN,Aspen,The Green House,329 Main St,2nd Floor,Carbondale,CO,81623,(970) 963-2254,---,---
Colorado,PITKIN,Aspen,Roaring Fork Horticultural Center,520 E. Cooper Ave,202,Aspen,CO,81611,(970) 925-4420,info@roaringforkhc.com,---
Colorado,PITKIN,Aspen,Silverpeak Apothecary,520 E. Cooper Ave,LL2,Aspen,CO,81611,(970) 925-4372,info@silverpeakapothecary.com,---
Colorado,PITKIN,Aspen,L.E.A.F (Locals Emporium of Alternative Farms,100 South Spring St,2,Aspen,CO,81611,(970) 920-4220,leafaspen@gmail.com,http://www.leafaspen.com
Colorado,PITKIN,Aspen,Sovereign Salud,560 Highway,133,Carbondale,CO,81623,(970) 963-1007,sovereignsalud@gmail.com,---
Colorado,PITKIN,Aspen,Green Medicine Wellness,1030 Grand Ave,---,Glenwood Springs,CO,81611,(970) 384-2026,info@greenmedicinewellness.com,---
Colorado,PITKIN,Aspen,Crested Butte Wellness Center,329 Belleview,A,Crested Butte,CO,81224,(970) 349-0599,diggergrant@yahoo.com,---
Colorado,PITKIN,Aspen,Colomed Center,615 Buggy Circle,---,Carbondale,CO,81623,(970) 963-4669,colomedcenter@gmail.com,---
Colorado,PITKIN,Aspen,Acme Dispensary,309 Belleview Ave,---,Crested Butte,CO,81224,(970) 209-3953,---,---
Colorado,PITKIN,Aspen,Aspen Roaring Fork Wellness,24505 Highway 82,---,Basalt,CO,81621,(970) 920-2222,info@aspenroaringforkwellness.com,---
Colorado,PITKIN,Aspen,K.I.N.D Wellness Center LLC,300 Aabc,B,Aspen,CO,81611,(970) 925-5463,kindwellness@gmail.com,---
Colorado,PITKIN,Aspen,Green Miracle Medicinals,985 Highway 133,---,Carbondale,CO,81623,(970) 963-1234,---,---
Colorado,PITKIN,Aspen,The Herbal Council,345 Colorado Ave,103,Carbondale,CO,81623,(970) 963-0610,theherbalcouncil@gmail.com,---
Colorado,PITKIN,Aspen,M.M.C.C,60 North 3rd St,---,Carbondale,CO,81623,(970) 510-5229,info@mmccarbonale.com,---
Colorado,PITKIN,Aspen,823 Grand Care Center,823 Grand Ave,---,Glenwood Springs,CO,81601,(970) 230-9074,maryjane@823Grand.com,---
Colorado,PITKIN,Aspen,GNS Megastore,716 Grand Ave,---,Glenwood Springs,CO,81601,(970) 384-2034,darrenhofert@yahoo.com,---
Colorado,PITKIN,Aspen,Mother Earth Healing Center,758 Main Street,---,Carbondale,CO,81623,(970) 963-0457,discgolfacein@aol.com,---
Colorado,PITKIN,Aspen,C.M.D,1101 Village Rd,UL3D,Carbondale,CO,81623,(970) 963-2784,---,---
Colorado,DENVER,Aurora/ Glendale/ WA Park,The Clinic on Holly ,1479 S. Holly St,---,Denver,CO,80222,(303) 758-9114,holly@thecliniccolorado.com,http://www.thecliniccolorado.com
Colorado,DENVER,Aurora/ Glendale/ WA Park,Green Leaf LLC,2280 S. Quebec St,G,Denver,CO,80231,(303) 990-9333,llcgreenleaf@gmail.com,http://denvergreenleaf.com
Colorado,DENVER,Aurora/ Glendale/ WA Park,Colorado Alternative Medicine,2394 S. Broadway,---,Denver,CO,80210,(720) 379-7295,coaltmed@yahoo.com,http://www.camdispensary.com
Colorado,DENVER,Aurora/ Glendale/ WA Park,BGOODS Apothecary,80 S. Pennsylvania St,---,Denver,CO,80209,(303) 777-5239,info@mastergrowers.com,---
Colorado,DENVER,Aurora/ Glendale/ WA Park,Metro Cannabis Inc,4101 E. Wesley Ave,1,Denver,CO,80222,(720) 771-9866,metrocannabis@yahoo.com,http://www.metrocannabis.org
Colorado,DENVER,Aurora/ Glendale/ WA Park,Cure Colorado,6200 E. Yale Ave,---,Denver,CO,80222,(720) 296-2857,---,http://curecolorado.com
Colorado,DENVER,Aurora/ Glendale/ WA Park,CitiMed,1640 E. Evans Ave,---,Denver,CO,80210,(303) 975-6485,---,http://www.citi-med.com
Colorado,DENVER,Aurora/ Glendale/ WA Park,Higher Health Medical,527 E. Mississippi Ave,---,Denver,CO,80210,(303) 722-1156,higherhealth420@aol.com,http://www.higherhealthmedical.com
Colorado,DENVER,Aurora/ Glendale/ WA Park,Altitude Organic Medicine South,2250 S. Oneida St,204,Denver,CO,80224,(303) 756-8888,stevew2@mindspring.com,http://www.altitudeorganicmedicine.net
Colorado,DENVER,Aurora/ Glendale/ WA Park,Karmaceuticals,4 S. Santa Fe Drive,---,Denver,CO,80223,(303) 765-2762,karmaceuticalsco@gmail.com,*May be found on Facebook
Colorado,DENVER,Aurora/ Glendale/ WA Park,Ganja Gourmet,1810 S. Broadway,---,Denver,CO,80210,(303) 282-9333,info@originalganjagourmet.com,http://www.ganja-gourmet.com
Colorado,DENVER,Aurora/ Glendale/ WA Park,Broadway Wellness,1290 S. Broadway,---,Denver,CO,80210,(303) 997-8413,broadwaywellness.frontdesk@gmail.com,http://www.broadway-wellness.com
Colorado,DENVER,Aurora/ Glendale/ WA Park,A Cut Above,1911 S. Broadway,---,Denver,CO,80210,(720) 536-8965,acutabovedenver@comcast.net,---
Colorado,DENVER,Aurora/ Glendale/ WA Park,A Mile High LLC,63 W. Alameda Ave,---,Denver,CO,80223,(303) 722-3420,amilehighllc@gmail.com,http://amilehighllc.com
Colorado,DENVER,Aurora/ Glendale/ WA Park,Urban Cannabis,2383 S. Downing St,---,Denver,CO,80210,(720) 379-3816,tim@urbancannabis.com,http://www.urbancannabis.com
Colorado,DENVER,Aurora/ Glendale/ WA Park,The Herbal Cure,985 S. Logan St,---,Denver,CO,80209,(303) 777-9333,info@theherbalcure.net,http://theherbalcure.net
Colorado,DENVER,Aurora/ Glendale/ WA Park,Bud Cellar,1450 S. Santa Fe Dr,102,Denver,CO,80223,(720) 388-8420,budcellar@gmail.com,---
Colorado,DENVER,Aurora/ Glendale/ WA Park,Green Cross Caregivers,1842 S. Parker Rd,18,Denver,CO,80231,(303) 337-2229,info@cannabisdenver.com,---
Colorado,DENVER,Aurora/ Glendale/ WA Park,The Wellness Shop,5885 E. Evans Ave,---,Denver,CO,80222,(303) 756-3762,jeremy@thewellnessshop.org,http://www.thewellnessshop.org
Colorado,DENVER,Aurora/ Glendale/ WA Park,V.B.M (Very Best Medicine) Club,6853 Leetsdale Dr,---,Denver,CO,80224,(720) 941-8872,verybestmeds@gmail.com,http://www.VBMClub.com
Colorado,DENVER,Aurora/ Glendale/ WA Park,"RockBrook, Inc. ",2865 S. Colorado Blvd,323,Denver,CO,80222,(303) 756-0595,info@rockbrookinc.com,http://www.rockbrookinc.com
Colorado,DENVER,Aurora/ Glendale/ WA Park,Emerald Pathway,4966 Leetsdale Dr,---,Denver,CO,80246,(720) 389-7442,medicinemancares@yahoo.com,---
Colorado,BOULDER,Boulder,Top Shelf Alternatives,1327 Spruce St,300,Boulder,CO,80302,(303) 459-5335,info@topshelfalternatives.com,http://www.topshelfalternatives.com
Colorado,BOULDER,Boulder,Boulder MMC (Medical Marijuana Center),2206 Pearl St,---,Boulder,CO,80302,(303) 449-2888,bmmc@bouldermmc.com,http://www.bouldermmc.com
Colorado,BOULDER,Boulder,Nature's Medicine,5565 Arapahoe Ave,---,Boulder,CO,80303,(303) 440-6700,naturesmedicineboulder@gmail.com,http://www.bouldernaturesmedicine.com
Colorado,BOULDER,Boulder,Boulder Wellness Center,5420 Arapahoe Ave,F,Boulder,CO,80303,(303) 442-2565,info@boulderwc.com,---
Colorado,BOULDER,Boulder,The Farm,1644 Walnut St,---,Boulder,CO,80302,(303) 440-1323,contact@thefarmco.com,http://thefarmco.com
Colorado,BOULDER,Boulder,Boulder Meds,1325 Broadway St,216,Boulder,CO,80302,(303) 440-8514,team@bouldermeds.org,http://www.bouldermeds.org
Colorado,BOULDER,Boulder,Boulder Kind Care,2031 16th St,---,Boulder,CO,80302,(720) 235-4232,info@boulderkindcare.com,http://www.boulderkindcare.org
Colorado,BOULDER,Boulder,The Village Green Society,2043 16th St,---,Boulder,CO,80302,(720) 746-9064,info@thevillagegreensociety.com,http://www.thevillagegreensociety.com
Colorado,BOULDER,Boulder,14er Holistics,2897 Mapleton Ave,800,Boulder,CO,80301,(303) 539-6525,info@14erholistics.com,http://www.14erholistics.com
Colorado,BOULDER,Boulder,Trill Alternatives,1537 Pearl St,---,Boulder,CO,80302,(720) 287-0645,trillboulder@gmail.com,http://www.trillalternatives.com
Colorado,BOULDER,Boulder,Compassionate Pain Management,1116 -7 W. Dillon Rd/ McCaslin,---,Louisville,CO,80027,(303) 665-5596,info@compassionatepm.com,http://www.compassionatepm.com
Colorado,BOULDER,Boulder,The Greenest Green,2034 Pearl St,---,Boulder,CO,80302,(303) 953-2852,info@greenestgreen.org,http://greenestgreen.org
Colorado,BOULDER,Boulder,"Colorado Care, Inc.",2850 Iris Ave,North*,Boulder,CO,80301,(303) 250-9066,coloradocare@gmail.com,http://www.coloradocareinc.com
Colorado,BOULDER,Boulder,Terrapin Care Station,5370 Manhattan Circle,104,Boulder,CO,80303,(303) 954-8402,information@terrapincarestation.com,http://terrapincarestation.com
Colorado,BOULDER,Boulder,Root Organic MMC (Medical Marijuana Center),5420 Arapahoe Ave,D,Boulder,CO,80303,(303) 443-0240,rootspaboulder@gmail.com,http://www.rootorganicmmc.com
Colorado,BOULDER,Boulder,Boulder RX,1146 Pearl St,---,Boulder,CO,80302,(720) 287-1747,boulderrx@comcast.net,http://boulderrx.com
Colorado,BOULDER,Boulder,CDS Boulder,2995 Baseline,110,Boulder,CO,80303,(303) 495-2195,info@cdscenters.com,http://www.cdscenters.com
Colorado,BOULDER,Boulder,Tree of Life Alternative Medicine,1 W. 1st St,---,Nederland,CO,80466,(303) 258-8733,---,http://www.optinaturalcaregivers.com
Colorado,BOULDER,Boulder,Green Dream Health Service,6700 Lookout Rd,5,Boulder,CO,80301,(303) 530-3031,info@greendreamhealth.com,http://greendreamhealth.com
Colorado,BOULDER,Boulder,North Boulder Wellness Center,1495 Yarmouth Ave,---,Boulder,CO,80304,(720) 328-0118,info@northboulderwellness.com,http://www.northboulderwellness.com
Colorado,BOULDER,Boulder,The Coop,7210 Valtec Ct,---,Boulder,CO,80303,(720) 565-2667,bff@thecoopwellness.com,*May be found on Facebook
Colorado,BOULDER,Boulder,High Grade Alternatives,3370 Arapahoe Ave,---,Boulder,CO,80303,(303) 449-1905,highgradealternatives@gmail.com,---
Colorado,BOULDER,Boulder,420HighWays,201 E. Simpson St,B,Lafayette,CO,80026,(720) 434-5210,info@420highways.com,---
Colorado,BOULDER,Boulder,Boulder MMJ,1909 N. Broadway,100,Boulder,CO,80302,(303) 862-4064,leads@mmjamerica.com,---
Colorado,BOULDER,Boulder,AlterMeds,1156 W. Dillon Rd,3,Louisville,CO,80027,(720) 389-6313,info@altermeds.com,---
Colorado,BOULDER,Boulder,The Bud,2500 Broadway,---,Boulder,CO,80304,(303) 565-4019,greatbudz@gmail.com,---
Colorado,BOULDER,Boulder,Fresh Republic,1335 Broadway,---,Boulder,CO,80302,(303) 413-1000,info@thegrowery.com,---
Colorado,BOULDER,Boulder,Ka-tet Wellness Services,489 N. Highway 287,201,Lafayette,CO,80026,(303) 665-5599,c.cooper@katetwellness.com,---
Colorado,BOULDER,Boulder,Boulder Medical Marijuana Dispensary,2111 30th St,A,Boulder,CO,80301,(303) 449-2663,mb@bouldermmdispensary.com,---
Colorado,BOULDER,Boulder,SOMA Wellness Lounge,1810 30th St,C,Boulder,CO,80301,(720) 432-7662,info@somacolorado.com,---
Colorado,BOULDER,Boulder,The Dandelion ,845 Walnut st,---,Boulder,CO,80302,(303) 459-4676,thedandelion@thedandelionco.com,---
Colorado,BOULDER,Boulder,Helping hands Herbal,2714 28th St,---,Boulder,CO,80301,(303) 444-1564,tim@helpinghandsherbals.com,---
Colorado,BOULDER,Boulder,Evolution Medicine Services,4476 N. Broadway,---,Boulder,CO,80304,(303) 588-3335,evolutionmedicine@live.com,---
Colorado,BOULDER,Boulder,Options Medical Center,1534 55th St,---,Boulder,CO,80301,(303) 444-0861,tyler@optionsmedicalcenter.com,---
Colorado,BOULDER,Boulder,The Med Shed,4483 N. Broadway,---,Boulder,CO,80304,(303) 635-6481,themedshed@gmail.com,---
Colorado,BOULDER,Boulder,Grateful Meds,110 Snyder St,---,Nederland,CO,80466,(303) 258-7703,---,---
Colorado,BOULDER,Boulder,Boulder Vital Herbs,2527 1/2 Broadway,---,Boulder,CO,80304,(303) 440-0234,info@bouldervitalherbs.com,---
Colorado,BOULDER,Boulder,Medicine on The Hill,1089 13th St,---,Boulder,CO,80302,(303) 440-3991,medicineonthehill@yahoo.com,---
Colorado,BOULDER,Boulder,Boulder Botanics Wellness Center,1750 30th St,7,Boulder,CO,80301,(720) 379-6046,info@boulderbotanics.com,---
Colorado,BOULDER,Boulder,New Options Wellness,2885 Aurora Ave,40,Boulder,CO,80303,(720) 266-9967,---,---
Colorado,BOULDER,Boulder,11:11 Wellness,1111 13th St,---,Boulder,CO,80302,(303) 440-8208,info@1111wellness.com,---
Colorado,BOULDER,Boulder,People's Choice Wellness Center,1634 N. 63rd St,1,Boulder,CO,80301,(720) 366-6615,c_garrett57@comcast.net,---
Colorado,BOULDER,Boulder,Mountainside Herbal Wellness Center,695 S. Broadway,---,Boulder,CO,80544,(303) 543-7626,info@mountainsidewellnesscenter.com,---
Colorado,BOULDER,Boulder,Lotus Medical,3107 28th St,B,Boulder,CO,80301,(303) 339-3885,brett@denverlotusmedical.com,---
Colorado,BOULDER,Boulder,Karing Kind Medical Marijuana Dispensary,5854 Rawhide Ct,C,Boulder,CO,80302,(303) 449-9333,karingkind@gmail.com,---
Colorado,BOULDER,Boulder,8th Street Care Center,1990 8th St,---,Boulder,CO,80302,(720) 328-7099,john@8thstreetcare.com,---
Colorado,BOULDER,Boulder,"Nedicate, LLC",150 N. Jefferson St,B-3,Nederland,CO,80466,(303) 258-7141,info@nedicate.com,---
Colorado,BOULDER,Boulder,Good Humor Meds,720 Pearl St,---,Boulder,CO,80302,(303) 402-1000,mark@goodhumormeds.com,---
Colorado,BOULDER,Boulder,"Fresh Baked Dispensary, LLC",2539 Pearl St,---,Boulder,CO,80302,(303) 440-9393,freshbakedllc@gmail.com,---
Colorado,BOULDER,Boulder,Flower of Life Healing Arts,3970 N. Broadway,201A,Boulder,CO,80304,(303) 444-1183,info@floweroflifeboulder.com,---
Colorado,DOUGLAS,Castle Rock/ Franktown,S.E.C.A.M Marijuana Dispensary,7517 E. State Hwy 86,---,Franktown,CO,80116,(720) 346-2772,secaminfo@gmail.com,---
Colorado,DOUGLAS,Castle Rock/ Franktown,Mile High Medical Gardens,858 Happy Canyon Rd,---,Castle Rock,CO,80108,(720) 249-2492,---,---
,,,,,,,,,,,
,,,,,,,,,,,
,,,,,,,,,,,
,,,,,,,,,,,