County,Sub-County,Region,Name,Street,Suite #,City,State,Zip Code,Phone Number,E-mail,Websites
RIVERSIDE,Riverside County,Beaumont,Oak Tree Alternative Care,257 E. 6th St,A,Beaumont,CA,92223,(951) 845-8500,otac420@yahoo.com,---
RIVERSIDE,Riverside County,Beaumont,S.M.C.C.C.A (Samadhi Medicinal Cannabis Collective Caretakers Association) (Delivery Only),---,---,Cabazon,CA,92230,(909) 568-8031,samadhimedicinalcannabis@gmail.com,---
RIVERSIDE,Riverside County,Beaumont,Quest for Health (Delivery Only),---,---,Cabazon,CA,92230,(760) 799-9743,freddiecorvettie92262@yahoo.com,http://www.questforhealthfoundation.com
RIVERSIDE,Riverside County,Beaumont,Genesis Solutions Collective,10218 Beaumont Ave,---,Cherry Valley,CA,92223,(951) 845-2900,genesissolutionscollective@gmail.com,---
SAN BERNARDINO,San Bernardino,Big Bear/ Lake Arrowhead,Budmart,28626 Hwy 18,A,Sky Forest,CA,92385,9097449420/ 8552836278,skyforest@budmart.org,http://www.budmart.org
SAN BERNARDINO,San Bernardino,Big Bear/ Lake Arrowhead,Top Shelf Meds (Delivery Only),---,---,Big Bear Lake,CA,92314,(909) 713-4665,contact@topshelfmeds.com,http://www.topshelfmeds.com
SAN BERNARDINO,San Bernardino,Big Bear/ Lake Arrowhead,SkyHighmeds (Delivery Only),---,---,Big Bear Lake to Crestline,CA,92382,(909) 742-9797,skyhighmeds@gmail.com,http://skyhighmeds.org
SAN BERNARDINO,San Bernardino,Big Bear/ Lake Arrowhead,Woodland Healing Center,23539 Crest Forest Dr.,---,Crestline,CA,92325,(909) 338-3788,woodlandhealingcenter@usa.com,---
SAN BERNARDINO,San Bernardino,Bloomington/ Rialto/ Colton,Cognoscente Patients Collective,18898 Valley Blvd,---,Bloomington,CA,92316,(909) 873-2341,cognoscentepatientscollective@hotmail.com,*May be found on Twitter
SAN BERNARDINO,San Bernardino,Bloomington/ Rialto/ Colton,I.E.H.H.C (The Inland Empire's Premier Cannabis Collective),18793 Valley Blvd,B,Bloomington,CA,92316,(909) 875-4200,mail@iehhc.info,http://www.iehhc.info
SAN BERNARDINO,San Bernardino,Bloomington/ Rialto/ Colton,Ameripro Collective,19080 Valley Blvd,---,Bloomington,CA,92316,(909) 421-1487,ameripro1@gmail.com,---
SAN BERNARDINO,San Bernardino,Bloomington/ Rialto/ Colton,I.V.P (Inland Valley Patients),10147 Church St,---,Bloomington,CA,92316,(909) 269-4870,ivpgreen@aol.com,---
SAN BERNARDINO,San Bernardino,Bloomington/ Rialto/ Colton,The Bud Spot,11391 Cedar Ave,D,Bloomington,CA,92316,(909) 820-6420,thebudspot@gmail.com,---
SAN BERNARDINO,San Bernardino,Bloomington/ Rialto/ Colton,XL Collective,18717 6th St,---,Bloomington,CA,92316,(951) 682-4465,xlcollective@gmail.com,---
SAN BERNARDINO,San Bernardino,Bloomington/ Rialto/ Colton,N.H.C (Natural Healing Center),18235 Valley Blvd,---,Bloomington,CA,92316,(888) 343-2943,420naturalhealingcenters@gmail.com,---
SAN BERNARDINO,San Bernardino,Bloomington/ Rialto/ Colton,O.G.C (Organic Garden Collective),1370 N. La Cadena Dr,B,Colton,CA,92324,(909) 777-0100,organicgardencollective@yahoo.com,http://organicgardencollective.com
SAN BERNARDINO,San Bernardino,Bloomington/ Rialto/ Colton,Take Away,113 E. Rialto Ave,---,Rialto,CA,92376,(909) 873-2222,info@nexst.biz,http://www.nexst.biz
SAN BERNARDINO,San Bernardino,Bloomington/ Rialto/ Colton,Camino Caregivers,17933 Valley Blvd,---,Bloomington,CA,92316,(909) 440-5407,caminocaregivers@yahoo.com,---
SAN BERNARDINO,San Bernardino,Bloomington/ Rialto/ Colton,G3 Holistic,1231 E. Washington St,D,Colton,CA,92324,(909) 373-7086,info@g3meds.com,http://www.g3meds.com
SAN BERNARDINO,San Bernardino,Bloomington/ Rialto/ Colton,Nature's Quest Healing Center,1344 N. Mt. Vernon,---,Colton,CA,92324,(909) 370-2117,naturesquesthc@gmail.com,---
SAN BERNARDINO,San Bernardino,Bloomington/ Rialto/ Colton,Calm Collective (Delivery Only),---,---,Bloomington/ Rialto/ Colton/ Fontana/ Surrounding Cities,CA,92404,(909) 989-8311,calmcollective420@yahoo.com,http://calmcollective420.com
SAN BERNARDINO,San Bernardino,Bloomington/ Rialto/ Colton,H.M.H.G (Holisitic Medical Health Group),323 W. Valley Blvd,A,Rialto,CA,92376,(909) 874-9333,holisticmedicalhealthgroup@gmail.com,---
SAN BERNARDINO,San Bernardino,Bloomington/ Rialto/ Colton,Green View Delivery (Delivery Only),---,---,Rialto,CA,92377,(909) 770-9236,greenviewdelivery@yahoo.com,http://www.greenviewdelivery.com
SAN BERNARDINO,San Bernardino,Bloomington/ Rialto/ Colton,My Way Blue Haze (Delivery?) (Alt. Location in Anaheim),---,---,Colton,CA,92324,(909) 544-6492,---,---
SAN BERNARDINO,San Bernardino,Bloomington/ Rialto/ Colton,True Herb Collective (Delivery Only),---,---,Inland Empire/ High Desert,CA,---,IE 9098008744/ HD 7609008744,registration@thc-delivery.com,http://www.thc-delivery.com
SAN BERNARDINO,San Bernardino,Bloomington/ Rialto/ Colton,"The Arias Group Collective of CA, Inc. (Delivery Only)",---,---,Bloomington,CA,92316,(909) 983-6343,meds@theariascollective.com,http://theariascollective.com